<?xml version="1.0" encoding="UTF-8" standalone="no" ?>
<Deployment:PackageConfiguration
xmlns:Deployment="http://www.omg.org/Deployment"
xmlns:xmi="http://www.omg.org/XMI"
xmlns:xsi="http://www.w3.org/2001/XMLSchema-instance"
xsi:schemaLocation="http://www.omg.org/Deployment Deployment.xsd">
  <label>Messenger Application Configuration</label>
  <basePackage href="MessengerAssembly.cpd"/>

  <!-- CIAO does not yet pay attention to this -->
  <configProperty>
    <name>subject</name>
    <value>
      <type>
        <kind>tk_string</kind>
      </type>
      <value>
        <string>My Subject</string>
      </value>
    </value>
  </configProperty>
</Deployment:PackageConfiguration>

